{
    "coord": {
        "lon": 78.47,
        "lat": 17.36
    },
    "weather": [{
        "id": 721,
        "main": "Haze",
        "description": "haze",
        "icon": "50d"
    }, {
        "id": 701,
        "main": "Mist",
        "description": "mist",
        "icon": "50d"
    }],
    "base": "stations",
    "main": {
        "temp": 27.34,
        "pressure": 1003,
        "humidity": 83,
        "temp_min": 26.11,
        "temp_max": 28
    },
    "visibility": 5000,
    "wind": {
        "speed": 7.7,
        "deg": 250
    },
    "clouds": {
        "all": 75
    },
    "dt": 1565249957,
    "sys": {
        "type": 1,
        "id": 9214,
        "message": 0.0077,
        "country": "IN",
        "sunrise": 1565224036,
        "sunset": 1565270188
    },
    "timezone": 19800,
    "id": 1269843,
    "name": "Hyderabad",
    "cod": 200
}